Assignment Kpop Collaboration Network
…
artist_id: This is a Spotify Artist ID of the Kpop top artists. This can be used as a key when joining with artist dataframe

artist_[i]: This is a name of the artists that collaborated with Kpop top artists or the Kpop top artists themselves, which means that it might duplicate with kpop_artist_name (i is a number from 1 to 7)

artist_id_[i]: This is a Spotify Artist ID of the artists that collaborated with Kpop top artists or the Kpop top artists themselves, which means that it might duplicate with artist_id (i is a number from 1 to 7). This can be used as a key when joining with artists dataframe.

Code

collab_songs <- collab_songs %>% 
  select(c("song_name", "song_id", "kpop_artist_name", "artist_id", "artist_1", "artist_id_1", "artist_2", "artist_id_2", "artist_3", "artist_id_3", "artist_4", "artist_id_4", "artist_5", "artist_id_5", "artist_6", "artist_id_6", "artist_7", "artist_id_7"))

collab_songs

# A tibble: 452 × 18
   song_name     song_id kpop_…¹ artis…² artis…³ artis…⁴ artis…⁵ artis…⁶ artis…⁷
   <chr>         <chr>   <chr>   <chr>   <chr>   <chr>   <chr>   <chr>   <chr>  
 1 Expectations  3szFx3… (G)I-D… 2AfmfG… Anne-M… 1zNqDE… MINNIE  2pHkxV… (G)I-D…
 2 Nxde (Steve … 6HXVUm… (G)I-D… 2AfmfG… Steve … 77AiFE… <NA>    <NA>    <NA>   
 3 TOMBOY (R3HA… 4y2Ssh… (G)I-D… 2AfmfG… R3HAB   6cEuCE… <NA>    <NA>    <NA>   
 4 HWAA - Dimit… 6sUnwJ… (G)I-D… 2AfmfG… Dimitr… 73jByn… <NA>    <NA>    <NA>   
 5 MORE          6juLad… (G)I-D… 2AfmfG… K/DA    4gOc8T… Madiso… 2kRfqP… (G)I-D…
 6 THE BADDEST   2V4Fx7… (G)I-D… 2AfmfG… K/DA    4gOc8T… (G)I-D… 2AfmfG… Wolfty…
 7 POP/STARS     5sbooP… (G)I-D… 2AfmfG… K/DA    4gOc8T… Madiso… 2kRfqP… (G)I-D…
 8 Automotivo E… 3hGyEi… 2am     5SnaL8… The Ch… 4zaS9m… Siilva  1Ju0ls… 2am    
 9 SCREAM - m-f… 31XceD… 2NE1    1l0mKo… m-flo   4UhiMI… <NA>    <NA>    <NA>   
10 Lollipop      2eDGx6… 2NE1    1l0mKo… BIGBANG 4Kxlr1… <NA>    <NA>    <NA>   
# … with 442 more rows, 9 more variables: artist_id_3 <chr>, artist_4 <chr>,
#   artist_id_4 <chr>, artist_5 <chr>, artist_id_5 <chr>, artist_6 <chr>,
#   artist_id_6 <chr>, artist_7 <chr>, artist_id_7 <chr>, and abbreviated
#   variable names ¹​kpop_artist_name, ²​artist_id, ³​artist_1, ⁴​artist_id_1,
#   ⁵​artist_2, ⁶​artist_id_2, ⁷​artist_3

Code

collab_songs %>% 
  arrange(song_name, kpop_artist_name, artist_1, artist_2) %>%
  select(c("song_name", "kpop_artist_name", "artist_1", "artist_2"))

# A tibble: 452 × 4
   song_name                                             kpop_…¹ artis…² artis…³
   <chr>                                                 <chr>   <chr>   <chr>  
 1 #GirlsSpkOut                                          TAEYEON CHANMI… <NA>   
 2 0X1=LOVESONG (I Know I Love You) - Japanese Ver.      TOMORR… Lilas … <NA>   
 3 0X1=LOVESONG (I Know I Love You) feat. MOD SUN        TOMORR… MOD SUN <NA>   
 4 1, 2                                                  LeeHi   최현석  <NA>   
 5 1, 2, 3                                               BTOB    SEO EU… LEE CH…
 6 2 Baddies - Biicla Remix                              NCT 127 Biicla  <NA>   
 7 2 Baddies - No Identity Remix                         NCT 127 No Ide… <NA>   
 8 2 Baddies - Viann Remix                               NCT 127 Viann   <NA>   
 9 4 Times                                               CHANGMO YUMDDA  CHANGMO
10 A Brand New Day (BTS World Original Soundtrack) [Pt.… BTS     Zara L… <NA>   
# … with 442 more rows, and abbreviated variable names ¹​kpop_artist_name,
#   ²​artist_1, ³​artist_2
…
Code

artists

# A tibble: 509 × 8
    ...1 `Unnamed: 0` name         id              top_k…¹ genre follo…² name_…³
   <dbl>        <dbl> <chr>        <chr>             <dbl> <chr>   <dbl> <chr>  
 1     0            0 (G)I-DLE     2AfmfGFbe0A0Ws…       1 ['k-… 5361467 (g)i-d…
 2   279          601 220 KID      4Euia7UzdRshy1…       0 ['da…   20493 220 kid
 3    14           30 2am          5SnaL8SsjGMHQN…       1 ['k-…  213314 2am    
 4    17           34 2NE1         1l0mKo96Jh9HVY…       1 ['da… 2362793 2ne1   
 5   144          289 365LIT       65LSFEqRhq074a…       0 ['ko…    5106 365lit 
 6    20           38 4Minute      6cdC1cwqh3eJAX…       1 ['k-… 1085425 4minute
 7    25           45 AB6IX        4y0wFJ5jmCUNRL…       1 ['k-…  535314 ab6ix  
 8    81          149 ABLE         0Y669kGV5Gru5R…       0 []      17326 able   
 9   402          870 aespa        6YVMFz59CuY7ng…       0 ['k-… 2934608 aespa  
10    32           62 After School 1loWI8jVk9btgJ…       1 ['k-…  335087 after …
# … with 499 more rows, and abbreviated variable names ¹​top_kpop, ²​followers,
#   ³​name_lower

name has 513 unique values and id has 517 unique values, which may mean that there are name values that are duplicated or missing id information.

Code

artists %>% 
  arrange(name)

# A tibble: 509 × 8
    ...1 `Unnamed: 0` name         id              top_k…¹ genre follo…² name_…³
   <dbl>        <dbl> <chr>        <chr>             <dbl> <chr>   <dbl> <chr>  
 1     0            0 (G)I-DLE     2AfmfGFbe0A0Ws…       1 ['k-… 5361467 (g)i-d…
 2   279          601 220 KID      4Euia7UzdRshy1…       0 ['da…   20493 220 kid
 3    14           30 2am          5SnaL8SsjGMHQN…       1 ['k-…  213314 2am    
 4    17           34 2NE1         1l0mKo96Jh9HVY…       1 ['da… 2362793 2ne1   
 5   144          289 365LIT       65LSFEqRhq074a…       0 ['ko…    5106 365lit 
 6    20           38 4Minute      6cdC1cwqh3eJAX…       1 ['k-… 1085425 4minute
 7    25           45 AB6IX        4y0wFJ5jmCUNRL…       1 ['k-…  535314 ab6ix  
 8    81          149 ABLE         0Y669kGV5Gru5R…       0 []      17326 able   
 9   402          870 aespa        6YVMFz59CuY7ng…       0 ['k-… 2934608 aespa  
10    32           62 After School 1loWI8jVk9btgJ…       1 ['k-…  335087 after …
# … with 499 more rows, and abbreviated variable names ¹​top_kpop, ²​followers,
#   ³​name_lower
…
artists <- artists %>%
  select(-c('Unnamed: 0'))

artists <- artists %>% relocate(id, .before = name)

Code

# This is the list of the genre names that appear in artist dataframe
artists %>%
  select(genre) %>%
  separate_rows(genre, sep = ",\\s*") %>%
  mutate(genre = gsub("\\[|'|\\]", "", genre)) %>%
  count(genre, sort = TRUE)

# A tibble: 144 × 2
   genre                  n
   <chr>              <int>
 1 ""                   189
 2 "k-pop"              127
 3 "k-rap"               61
 4 "korean pop"          52
 5 "korean r&b"          35
 6 "k-pop girl group"    34
 7 "pop"                 32
 8 "dance pop"           30
 9 "k-pop boy group"     29
10 "edm"                 19
# … with 134 more rows
…
artists

# A tibble: 509 × 8
   id                     name       top_k…¹ genre follo…² name_…³ regio…⁴ kpop 
   <chr>                  <chr>        <dbl> <chr>   <dbl> <chr>   <chr>   <chr>
 1 2AfmfGFbe0A0WsTYm0SDTx (G)I-DLE         1 ['k-… 5361467 (g)i-d… K-pop   yes  
 2 4Euia7UzdRshy1DJOSMTcs 220 KID          0 ['da…   20493 220 kid UK-pop  no   
 3 5SnaL8SsjGMHQNyqpa8Zos 2am              1 ['k-…  213314 2am     K-pop   yes  
 4 1l0mKo96Jh9HVYONcRl3Yp 2NE1             1 ['da… 2362793 2ne1    K-pop   yes  
 5 65LSFEqRhq074aUBF1zF2e 365LIT           0 ['ko…    5106 365lit  K-pop   yes  
 6 6cdC1cwqh3eJAXaxXJt2jv 4Minute          1 ['k-… 1085425 4minute K-pop   yes  
 7 4y0wFJ5jmCUNRLZfsw1I7g AB6IX            1 ['k-…  535314 ab6ix   K-pop   yes  
 8 0Y669kGV5Gru5RaumXTxtV ABLE             0 []      17326 able    Unknown no   
 9 6YVMFz59CuY7ngCxTxjpxE aespa            0 ['k-… 2934608 aespa   K-pop   yes  
10 1loWI8jVk9btgJXHgqHXPD After Sch…       1 ['k-…  335087 after … K-pop   yes  
# … with 499 more rows, and abbreviated variable names ¹​top_kpop, ²​followers,
#   ³​name_lower, ⁴​region_category
…
id: This is a Spotify song id. Can be used as a key when joining with collab_songs

Code

# I will remove unnecessary columns
song_detail <- song_detail %>% 
  relocate(name,popularity, release_date, release_year, .before="album") %>%
  select(-c("...1", "disc_number", "duration_ms", "external_ids", "external_urls","href", "is_local", "preview_url", "track_number", "type", "uri", "release_date"))

song_detail$release_year <- as.integer(song_detail$release_year)

song_detail %>% arrange(release_year)

# A tibble: 452 × 8
   name                      popul…¹ relea…² album artists avail…³ expli…⁴ id   
   <chr>                       <dbl>   <int> <chr> <chr>   <chr>   <lgl>   <chr>
 1 Show Me Your Love              28    2005 {'al… [{'ext… ['AR',… FALSE   2z3h…
 2 I Wanna Hold You               14    2005 {'al… [{'ext… ['AR',… FALSE   2A7W…
 3 I'm Your Man                   17    2005 {'al… [{'ext… ['AR',… FALSE   2MYG…
 4 Forever With U (Feat. Pa…      37    2006 {'al… [{'ext… ['AR',… FALSE   7czV…
 5 HOLD THE LINE (Feat. 조P…      12    2006 {'al… [{'ext… ['AR',… FALSE   5KgZ…
 6 오늘은 그대와 하늘위로 (…       1    2006 {'al… [{'ext… ['AR',… FALSE   4Yyt…
 7 FAR AWAY (Feat. MC몽)           3    2006 {'al… [{'ext… ['AR',… FALSE   6HvV…
 8 Anystar                        18    2006 {'al… [{'ext… ['AR',… FALSE   3gJz…
 9 오아시스 (feat. 이재훈)         6    2007 {'al… [{'ext… ['AR',… FALSE   56iR…
10 Love Action (feat.Jo-PD)        8    2008 {'al… [{'ext… ['AR',… FALSE   2IgM…
# … with 442 more rows, and abbreviated variable names ¹​popularity,
#   ²​release_year, ³​available_markets, ⁴​explicit
…
# Remove the songs by artist_6 whose id doesn't exist 
collab_songs <- collab_songs %>% 
  left_join(artists, by = c("artist_id_6" = "id")) %>%
  filter(is.na(artist_6)|!is.na(name)) %>%
  select(-c("name", "top_kpop", "genre", "followers", "name_lower", "region_category", "kpop"))

# Remove the songs by artist_7 whose id doesn't exist 
collab_songs <- collab_songs %>% 
  left_join(artists, by = c("artist_id_7" = "id")) %>%
  filter(is.na(artist_7)|!is.na(name)) %>%
  select(-c("name", "top_kpop", "genre", "followers", "name_lower", "region_category", "kpop"))

collab_songs

# A tibble: 441 × 25
   song_name     song_id kpop_…¹ artis…² artis…³ artis…⁴ artis…⁵ artis…⁶ artis…⁷
   <chr>         <chr>   <chr>   <chr>   <chr>   <chr>   <chr>   <chr>   <chr>  
 1 Expectations  3szFx3… (G)I-D… 2AfmfG… Anne-M… 1zNqDE… MINNIE  2pHkxV… (G)I-D…
 2 Nxde (Steve … 6HXVUm… (G)I-D… 2AfmfG… Steve … 77AiFE… <NA>    <NA>    <NA>   
 3 TOMBOY (R3HA… 4y2Ssh… (G)I-D… 2AfmfG… R3HAB   6cEuCE… <NA>    <NA>    <NA>   
 4 HWAA - Dimit… 6sUnwJ… (G)I-D… 2AfmfG… Dimitr… 73jByn… <NA>    <NA>    <NA>   
 5 MORE          6juLad… (G)I-D… 2AfmfG… K/DA    4gOc8T… Madiso… 2kRfqP… (G)I-D…
 6 THE BADDEST   2V4Fx7… (G)I-D… 2AfmfG… K/DA    4gOc8T… (G)I-D… 2AfmfG… Wolfty…
 7 POP/STARS     5sbooP… (G)I-D… 2AfmfG… K/DA    4gOc8T… Madiso… 2kRfqP… (G)I-D…
 8 Automotivo E… 3hGyEi… 2am     5SnaL8… The Ch… 4zaS9m… Siilva  1Ju0ls… 2am    
 9 SCREAM - m-f… 31XceD… 2NE1    1l0mKo… m-flo   4UhiMI… <NA>    <NA>    <NA>   
10 Lollipop      2eDGx6… 2NE1    1l0mKo… BIGBANG 4Kxlr1… <NA>    <NA>    <NA>   
# … with 431 more rows, 16 more variables: artist_id_3 <chr>, artist_4 <chr>,
#   artist_id_4 <chr>, artist_5 <chr>, artist_id_5 <chr>, artist_6 <chr>,
#   artist_id_6 <chr>, artist_7 <chr>, artist_id_7 <chr>,
#   show_kpop_top.x <chr>, show_kpop_top.y <chr>, show_kpop_top.x.x <chr>,
#   show_kpop_top.y.y <chr>, show_kpop_top.x.x.x <chr>,
#   show_kpop_top.y.y.y <chr>, show_kpop_top <chr>, and abbreviated variable
#   names ¹​kpop_artist_name, ²​artist_id, ³​artist_1, ⁴​artist_id_1, ⁵​artist_2, …
…
colnames(edgelist) <- c("From", "To", "song_id", "song_name")

edgelist

# A tibble: 591 × 4
   From                   To                     song_id                song_n…¹
   <chr>                  <chr>                  <chr>                  <chr>   
 1 2AfmfGFbe0A0WsTYm0SDTx 1zNqDE7qDGCsyzJwohVaoX 3szFx3SyWFpRbehaPxpyqq Expecta…
 2 2AfmfGFbe0A0WsTYm0SDTx 2pHkxVNynHBwQHhGaoBIXX 3szFx3SyWFpRbehaPxpyqq Expecta…
 3 2AfmfGFbe0A0WsTYm0SDTx 77AiFEVeAVj2ORpC85QVJs 6HXVUmiqWSg3OW6yr5mJCJ Nxde (S…
 4 2AfmfGFbe0A0WsTYm0SDTx 6cEuCEZu7PAE9ZSzLLc2oQ 4y2SshixeFlqPprLmoZtJe TOMBOY …
 5 2AfmfGFbe0A0WsTYm0SDTx 73jBynjsVtofjRpdpRAJGk 6sUnwJgPUTHKBKnsKZr9PC HWAA - …
 6 2AfmfGFbe0A0WsTYm0SDTx 4gOc8TsQed9eqnqJct2c5v 6juLaduD4STCUDWT0AYun4 MORE    
 7 2AfmfGFbe0A0WsTYm0SDTx 2kRfqPViCqYdSGhYSM9R0Q 6juLaduD4STCUDWT0AYun4 MORE    
 8 2AfmfGFbe0A0WsTYm0SDTx 6fs2or0cKLEM2xohWq8SoX 6juLaduD4STCUDWT0AYun4 MORE    
 9 2AfmfGFbe0A0WsTYm0SDTx 0tRFWXqKBBQcu5oFVOgVzX 6juLaduD4STCUDWT0AYun4 MORE    
10 2AfmfGFbe0A0WsTYm0SDTx 4TqlcgMFDryY96KWcvrhTv 6juLaduD4STCUDWT0AYun4 MORE    
# … with 581 more rows, and abbreviated variable name ¹​song_name
…
