Week 1 Challenge
…
    Published

      February 15, 2023

Reading in the Data

GOT Marriage data is read in.

Code

got_marriage <- read_csv("_data/got/got_marriages.csv", show_col_types = FALSE) 
got_marriage

# A tibble: 255 × 5
   From      To        Type    Notes  Generation
   <chr>     <chr>     <chr>   <chr>  <chr>     
 1 Targaryen Stark     Married R+L=J  Current   
 2 Baratheon Martell   Engaged died   Current   
 3 Baratheon Stark     Engaged broken Current   
 4 Martell   Essos     Married <NA>   Current   
 5 Martell   Reach     Affair  <NA>   Current   
 6 Martell   Essos     Affair  <NA>   Current   
 7 Martell   Essos     Affair  <NA>   Current   
 8 Martell   Septa     Affair  <NA>   Current   
 9 Martell   Dorne     Affair  <NA>   Current   
10 Martell   Targaryen Married <NA>   Current   
# … with 245 more rows
…
