Week 2 Challenge
…
I want to use the parent NAICS codes to make a legible graph with a reasonable number of nodes.

#Get NAICS codes
naics <- read_xlsx("_data/got/US_input_output_table_2007_and_2012.xlsx", sheet = 2, skip = 4)

New names:
• `` -> `...5`

In other words, I just want these sectors:

naics %>% 
  filter(!str_detect(Summary, "\\d"))

# A tibble: 32 × 7
   Sector Summary                             U.Sum…¹ Detail ...5  Notes Relat…²
   <chr>  <chr>                               <chr>   <chr>  <chr> <chr> <chr>  
 1 11     AGRICULTURE, FORESTRY, FISHING, AN… <NA>    <NA>   <NA>  <NA>  <NA>   
 2 21     MINING                              <NA>    <NA>   <NA>  <NA>  <NA>   
 3 22     UTILITIES                           <NA>    <NA>   <NA>  <NA>  <NA>   
 4 23     CONSTRUCTION                        <NA>    <NA>   <NA>  <NA>  <NA>   
 5 33DG   DURABLE GOODS                       <NA>    <NA>   <NA>  <NA>  <NA>   
 6 31ND   NONDURABLE GOODS                    <NA>    <NA>   <NA>  <NA>  <NA>   
 7 42     WHOLESALE TRADE                     <NA>    <NA>   <NA>  <NA>  <NA>   
 8 44RT   RETAIL TRADE                        <NA>    <NA>   <NA>  <NA>  <NA>   
 9 48TW   TRANSPORTATION AND WAREHOUSING, EX… <NA>    <NA>   <NA>  <NA>  <NA>   
10 51     INFORMATION                         <NA>    <NA>   <NA>  <NA>  <NA>   
# … with 22 more rows, and abbreviated variable names ¹​U.Summary,
#   ²​`Related 2012 NAICS Codes`

To get there, I’ll use fill(). After this, every value in Related 2012 NAICS Codes will have one of the ~30 NAICS sectors accompanying it.

#Remove any value in `Summary` if it has even one number
naics <- naics %>% mutate(Summary = case_when(
  (str_detect(Summary, "\\d")) ~ NA,
  TRUE ~ Summary))

naics <- naics %>% fill(Sector, Summary)

naics

# A tibble: 1,026 × 7
   Sector Summary                             U.Sum…¹ Detail ...5  Notes Relat…²
   <chr>  <chr>                               <chr>   <chr>  <chr> <chr> <chr>  
 1 11     AGRICULTURE, FORESTRY, FISHING, AN… <NA>    <NA>   <NA>  <NA>  <NA>   
 2 11     AGRICULTURE, FORESTRY, FISHING, AN… <NA>    <NA>   <NA>  <NA>  <NA>   
 3 11     AGRICULTURE, FORESTRY, FISHING, AN… Farms   <NA>   <NA>  <NA>  <NA>   
 4 11     AGRICULTURE, FORESTRY, FISHING, AN… <NA>    <NA>   <NA>  <NA>  <NA>   
 5 11     AGRICULTURE, FORESTRY, FISHING, AN… 111     Crop … <NA>  <NA>  <NA>   
 6 11     AGRICULTURE, FORESTRY, FISHING, AN… <NA>    <NA>   <NA>  <NA>  <NA>   
 7 11     AGRICULTURE, FORESTRY, FISHING, AN… <NA>    1111A0 Oils… <NA>  11111-2
 8 11     AGRICULTURE, FORESTRY, FISHING, AN… <NA>    1111B0 Grai… <NA>  11113-…
 9 11     AGRICULTURE, FORESTRY, FISHING, AN… <NA>    111200 Vege… <NA>  1112   
10 11     AGRICULTURE, FORESTRY, FISHING, AN… <NA>    111300 Frui… <NA>  1113   
# … with 1,016 more rows, and abbreviated variable names ¹​U.Summary,
#   ²​`Related 2012 NAICS Codes`
…
